blog – exercice-3
…
  table_importee <- dbReadTable(connexion, nom_table)

  #Convertissons la table en tibble

  tibble_resultat <- as_tibble(table_importee)

  print(tibble_resultat)

} else {

  cat("Erreur: La connexion à la base de données a échoué.")

}

# A tibble: 1,078,924 × 13
      ID Name      Sex     Age Height Weight Team  NOC   Games City  Sport Event
   <int> <chr>     <chr> <int>  <int>  <dbl> <chr> <chr> <chr> <chr> <chr> <chr>
 1     1 A Dijiang M        24    180     80 China CHN   1992… Barc… Bask… Bask…
 2     2 A Lamusi  M        23    170     60 China CHN   2012… Lond… Judo  Judo…
 3     3 Gunnar N… M        24     NA     NA Denm… DEN   1920… Antw… Foot… Foot…
 4     4 Edgar Li… M        34     NA     NA Denm… DEN   1900… Paris Tug-… Tug-…
 5     5 Christin… F        21    185     82 Neth… NED   1988… Calg… Spee… Spee…
 6     5 Christin… F        21    185     82 Neth… NED   1988… Calg… Spee… Spee…
 7     5 Christin… F        25    185     82 Neth… NED   1992… Albe… Spee… Spee…
 8     5 Christin… F        25    185     82 Neth… NED   1992… Albe… Spee… Spee…
 9     5 Christin… F        27    185     82 Neth… NED   1994… Lill… Spee… Spee…
10     5 Christin… F        27    185     82 Neth… NED   1994… Lill… Spee… Spee…
# ℹ 1,078,914 more rows
# ℹ 1 more variable: Medal <chr>
…
#Identification de l'édition avec les athlètes les plus jeunes

plus_jeunes <- resultats_moyenne_age |> 

  filter(moyenne_age == min(moyenne_age, na.rm = TRUE))

# Identification de l'édition avec les athlètes les plus vieux

plus_vieux <- resultats_moyenne_age |>  

  filter(moyenne_age == max(moyenne_age, na.rm = TRUE))

print(resultats_moyenne_age)

# A tibble: 35 × 2
    Year moyenne_age
   <int>       <dbl>
 1  1896        23.6
 2  1900        28.9
 3  1904        26.7
 4  1906        27.1
 5  1908        27.0
 6  1912        27.5
 7  1920        29.3
 8  1924        28.0
 9  1928        27.9
10  1932        29.6
# ℹ 25 more rows
…
