blog – exercice-4
…
  }

  response_table <- perform_request(xy[1], xy[2])

  unnested_table <- unnest_response(response_table)

}

xy_coordinates <- c(48.85, 2.35)

forecast_result <- get_forecast.numeric(xy_coordinates)

print(forecast_result)

# A tibble: 168 × 5
   date_heure          temperature_celsius temperature_ressentie_celsius
   <dttm>                            <dbl>                         <dbl>
 1 2024-03-07 00:00:00                 4.7                           2.7
 2 2024-03-07 01:00:00                 4.1                           1.7
 3 2024-03-07 02:00:00                 3.7                           1.6
 4 2024-03-07 03:00:00                 3                             0.8
 5 2024-03-07 04:00:00                 2.7                           0.5
 6 2024-03-07 05:00:00                 2.3                           0  
 7 2024-03-07 06:00:00                 1.9                          -0.4
 8 2024-03-07 07:00:00                 2                            -0.2
 9 2024-03-07 08:00:00                 3.1                           1.1
10 2024-03-07 09:00:00                 5.9                           3.8
# ℹ 158 more rows
# ℹ 2 more variables: precipitation_proba <int>, precipitation <dbl>
…
  response_table <- perform_request(coordinates[1],coordinates[2])

  unnested_table <- unnest_response(response_table)

}

forecast_result <- get_forecast.character("9 Quai Henri Barbusse, Nantes, 44000, FRANCE")

Passing 1 address to the ArcGIS single address geocoder

Query completed in: 0.1 seconds

print(forecast_result)

# A tibble: 168 × 5
   date_heure          temperature_celsius temperature_ressentie_celsius
   <dttm>                            <dbl>                         <dbl>
 1 2024-03-07 00:00:00                 6                             3.3
 2 2024-03-07 01:00:00                 5.5                           2.6
 3 2024-03-07 02:00:00                 6.4                           3  
 4 2024-03-07 03:00:00                 5.8                           2.7
 5 2024-03-07 04:00:00                 5.7                           2.5
 6 2024-03-07 05:00:00                 4.9                           1.5
 7 2024-03-07 06:00:00                 4                             0.4
 8 2024-03-07 07:00:00                 3.9                           0.4
 9 2024-03-07 08:00:00                 4.3                           0.5
10 2024-03-07 09:00:00                 5.5                           1.2
# ℹ 158 more rows
# ℹ 2 more variables: precipitation_proba <int>, precipitation <dbl>
…
